{
  "code": 200,
  "message": "操作成功",
  "data": {
    "pageNum": 2,
    "pageSize": 5,
    "totalPage": 32,
    "total": 159,
    "list": [
      {
        "pk_Id": 6,
        "location": "location-6",
        "tpe": "type-6",
        "pump_head": 38,
        "flow": 1.79,
        "rpm": 1177,
        "quality": 901,
        "spare_part": "xyMFbPU",
        "powr": 15.6,
        "factory_tim": "2018-04-01T16:00:00.000+00:00",
        "factory_num": "6cf3onmRb",
        "factory_nam": "WrI8",
        "category": "JujjcUv4Ou",
        "remake": "u9TYgG0aj3mz81edbJsa",
        "create_tim": "2018-04-01T16:00:00.000+00:00",
        "correction_tim": "2018-04-01T16:00:00.000+00:00"
      },
      {
        "pk_Id": 7,
        "location": "location-7",
        "tpe": "type-7",
        "pump_head": 63,
        "flow": 1.16,
        "rpm": 2572,
        "quality": 1703,
        "spare_part": "mcGWGdK",
        "powr": 14.5,
        "factory_tim": "2018-04-02T16:00:00.000+00:00",
        "factory_num": "abtII1HwF",
        "factory_nam": "GRdP",
        "category": "xV4Jvn6z1T",
        "remake": "SScJypiCHokrwiVOM0Ac",
        "create_tim": "2018-04-02T16:00:00.000+00:00",
        "correction_tim": "2018-04-02T16:00:00.000+00:00"
      },
      {
        "pk_Id": 8,
        "location": "location-8",
        "tpe": "type-8",
        "pump_head": 8,
        "flow": 1.16,
        "rpm": 4104,
        "quality": 1179,
        "spare_part": "xMtJ9zK",
        "powr": 14.5,
        "factory_tim": "2018-04-02T16:00:00.000+00:00",
        "factory_num": "zdVE9xwrW",
        "factory_nam": "rpnd",
        "category": "jmUkpqocS3",
        "remake": "eGmf64yKDsQfEnYeOPn4",
        "create_tim": "2018-04-02T16:00:00.000+00:00",
        "correction_tim": "2018-04-02T16:00:00.000+00:00"
      },
      {
        "pk_Id": 9,
        "location": "location-9",
        "tpe": "type-9",
        "pump_head": 16,
        "flow": 1.16,
        "rpm": 3884,
        "quality": 661,
        "spare_part": "RwMzTIn",
        "powr": 14.5,
        "factory_tim": "2018-04-02T16:00:00.000+00:00",
        "factory_num": "7R6YGcLBf",
        "factory_nam": "347H",
        "category": "80kBM81H6s",
        "remake": "VnpNchZRVcQ8P5lWIsy2",
        "create_tim": "2018-04-02T16:00:00.000+00:00",
        "correction_tim": "2018-04-02T16:00:00.000+00:00"
      },
      {
        "pk_Id": 10,
        "location": "location-10",
        "tpe": "type-10",
        "pump_head": 86,
        "flow": 11.08,
        "rpm": 2616,
        "quality": 593,
        "spare_part": "lWRwnZL",
        "powr": 14.9,
        "factory_tim": "2018-04-03T16:00:00.000+00:00",
        "factory_num": "yL1QyjOZA",
        "factory_nam": "2K1M",
        "category": "jnoSCtfT8Y",
        "remake": "klDn6V9PboX14ooJQ0rD",
        "create_tim": "2018-04-03T16:00:00.000+00:00",
        "correction_tim": "2018-04-03T16:00:00.000+00:00"
      }
    ]
  }
}